{
  "pageNumber": 1,
  "pageSize": 10,
  "totalPages": 12,
  "facetView": [
    {
      "value": "parentCatgroup_id_search",
      "entry": [
        {
          "value": "parentCatgroup_id_search%3A%22150601%22",
          "label": "wb2@test.com",
          "count": "90"
        },
        {
          "value": "parentCatgroup_id_search%3A%2223617%22",
          "label": "Canada Health & Safety Training",
          "count": "20"
        },
        {
          "value": "parentCatgroup_id_search%3A%22149606%22",
          "label": "Parent CG with Child - Sub Child CG-2014",
          "count": "1"
        },
        {
          "value": "parentCatgroup_id_search%3A%2220051%22",
          "label": "Online Workplace Safety Videos",
          "count": "1"
        },
        {
          "value": "parentCatgroup_id_search%3A%22220102%22",
          "label": "POD Info",
          "count": "1"
        }
      ],
      "name": "Category"
    },
    {
      "value": "ext_courseFormat",
      "entry": [
        {
          "value": "ext_courseFormat%3A%22On+Demand%22",
          "label": "On Demand",
          "count": "97"
        },
        {
          "value": "ext_courseFormat%3A%22Virtual+Classroom%22",
          "label": "Virtual Classroom",
          "count": "15"
        }
      ],
      "name": "Course Format"
    },
    {
      "value": "ext_contentType",
      "entry": [
        {
          "value": "ext_contentType%3A%22Courses%22",
          "label": "Courses",
          "count": "79"
        },
        {
          "value": "ext_contentType%3A%22Free+Courses%22",
          "label": "Free Courses",
          "count": "35"
        }
      ],
      "name": "Content Type"
    },
    {
      "value": "price_USD",
      "entry": [
        {
          "value": "price_USD%3A%28%7B*+100%7D+100%29",
          "label": "({* 100} 100)",
          "count": "109"
        },
        {
          "value": "price_USD%3A%28%7B100+200%7D+200%29",
          "label": "({100 200} 200)",
          "count": "1"
        },
        {
          "value": "price_USD%3A%28%7B200+300%7D+300%29",
          "label": "({200 300} 300)",
          "count": "1"
        },
        {
          "value": "price_USD%3A%28%7B300+400%7D+400%29",
          "label": "({300 400} 400)",
          "count": "0"
        },
        {
          "value": "price_USD%3A%28%7B400+500%7D+500%29",
          "label": "({400 500} 500)",
          "count": "0"
        },
        {
          "value": "price_USD%3A%28%7B500+*%7D%29",
          "label": "({500 *})",
          "count": "1"
        }
      ],
      "name": "OfferPrice_USD"
    },
    {
      "value": "ads_f10002_ntk_cs",
      "entry": [
        {
          "value": "ads_f10002_ntk_cs%3A%22Administrators%22",
          "label": "Administrators",
          "count": "1"
        },
        {
          "value": "ads_f10002_ntk_cs%3A%22Managers%22",
          "label": "Managers",
          "count": "2"
        },
        {
          "value": "ads_f10002_ntk_cs%3A%22Customer+Service+Exectives%22",
          "label": "Customer Service Exectives",
          "count": "3"
        }
      ],
      "name": "Roles"
    },
    {
      "value": "ads_f10003_ntk_cs",
      "entry": [
        {
          "value": "ads_f10003_ntk_cs%3A%22IT+Certification%22",
          "label": "IT Certification",
          "count": "3"
        },
        {
          "value": "ads_f10003_ntk_cs%3A%22Safety+Certification%22",
          "label": "Safety Certification",
          "count": "1"
        },
        {
          "value": "ads_f10003_ntk_cs%3A%22Insurance+Certification%22",
          "label": "Insurance Certification",
          "count": "1"
        }
      ],
      "name": "Certifications"
    },
    {
      "value": "ext_authorName",
      "entry": [
        {
          "value": "ext_authorName%3A%22F+Name+L+Name%22",
          "label": "F Name L Name",
          "count": "4"
        },
        {
          "value": "ext_authorName%3A%22Aq+Test%22",
          "label": "Aq Test",
          "count": "1"
        },
        {
          "value": "ext_authorName%3A%22F+Anme+L+Name%22",
          "label": "F Anme L Name",
          "count": "1"
        },
        {
          "value": "ext_authorName%3A%22Fname+Laname%22",
          "label": "Fname Laname",
          "count": "1"
        }
      ],
      "name": "Author Name"
    },
    {
      "value": "ads_f11501_ntk_cs",
      "entry": [
        {
          "value": "ads_f11501_ntk_cs%3A%22New%22",
          "label": "New",
          "count": "3"
        },
        {
          "value": "ads_f11501_ntk_cs%3A%22Popular%22",
          "label": "Popular",
          "count": "2"
        },
        {
          "value": "ads_f11501_ntk_cs%3A%22Premium%22",
          "label": "Premium",
          "count": "1"
        }
      ],
      "name": "Product Type"
    }
  ],
  "subscriptionCourses": [
    {
      "courseTitle": "Enrolled Course",
      "thumbnail": "",
      "fullImage": "",
      "category": "wb2@test.com",
      "format": "On Demand",
      "level": "",
      "duration": "15*",
      "durationUnit": "hour",
      "shortDesc": "",
      "launchURI": "asdas",
      "courseGUID": "176442deebb444a3a774eb22a54b6091",
      "courseGroupGUID":"CE0E43FC0BDD40E0A3E47328327E3FCB",
      "courseType": "On Demand",
      "rating": "3.6",
      "reviewCount": "1",
      "attributeLabel": "eLm",
      "attributeType": "elm",
      "subscriptionId": [
        1300
      ]
    },
    {
      "courseTitle": "Open Course",
      "thumbnail": "",
      "fullImage": "",
      "category": "wb2@test.com",
      "format": "On Demand",
      "level": "",
      "duration": "15*",
      "durationUnit": "hour",
      "shortDesc": "",
      "launchURI": "",
      "courseGUID": "176442deebb444a3a774eb22a54b6091",
      "courseGroupGUID":"CE0E43FC0BDD40E0A3E47328327E3FCB",
      "courseType": "On Demand",
      "rating": "0.0",
      "reviewCount": "1",
      "attributeLabel": "eLm",
      "attributeType": "elm",
      "subscriptionId": [
        1300
      ]
    },
    {
      "courseTitle": "Virtual Classroom - with Location Data",
      "thumbnail": "",
      "fullImage": "",
      "category": "wb2@test.com",
      "format": "Virtual Classroom",
      "level": "",
      "duration": "4",
      "durationUnit": "hour",
      "shortDesc": "You are currently enrolled in 0 courses within your subscription. With 605 courses available, take advantage of endless learning! You are currently enrolled in 0 courses within your subscription. With 605 courses available, take advantage of endless learning!",
      "launchURI": "",
      "courseGUID": "93bc86f15a5644a9b7697a7fe1b9de6b",
      "courseGroupGUID":"CE0E43FC0BDD40E0A3E47328327E3FCB",
      "courseType": "Virtual Classroom",
      "rating": "0.0",
      "reviewCount": "0",
      "attributeLabel": "New",
      "attributeType": "new",
      "subscriptionId": [
        1300
      ]
    },
    {
      "courseTitle": "Virtual Classroom - without Location Data",
      "thumbnail": "",
      "fullImage": "",
      "category": "wb2@test.com",
      "format": "Virtual Classroom",
      "level": "",
      "duration": "4",
      "durationUnit": "hour",
      "shortDesc": "",
      "launchURI": "",
      "courseGUID": "C4BBD4BC9DF843A180A54877C3B3B383",
      "courseGroupGUID":"CE0E43FC0BDD40E0A3E47328327E3FCB",
      "courseType": "Virtual Classroom",
      "rating": "0.0",
      "reviewCount": "0",
      "attributeLabel": "New",
      "attributeType": "new",
      "subscriptionId": [
        1300
      ]
    },
    {
      "courseTitle": "test",
      "thumbnail": "",
      "fullImage": "",
      "category": "wb2@test.com",
      "format": "Print-Based",
      "level": "",
      "duration": "0",
      "durationUnit": "hour",
      "shortDesc": "",
      "launchURI": "",
      "courseGUID": "f1c353cbba3b4675b76fabde23ac2b66",
      "courseGroupGUID":"CE0E43FC0BDD40E0A3E47328327E3FCB",
      "courseType": "Print-Based",
      "rating": "0.0",
      "reviewCount": "0",
      "attributeLabel": "Premium",
      "attributeType": "premium",
      "subscriptionId": [
        1300
      ]
    },
    {
      "courseTitle": "test",
      "thumbnail": "https://qa-player.360training.com/ICPfilesystem/PersistentAssets/129380/116342/software-testing-words-stamp.jpg",
      "fullImage": "https://qa-player.360training.com/ICPfilesystem/PersistentAssets/129380/116342/software-testing-words-stamp.jpg",
      "category": "wb2@test.com",
      "format": "On Demand",
      "level": "",
      "duration": "2*",
      "durationUnit": "hour",
      "shortDesc": "",
      "launchURI": "",
      "courseGUID": "f34a2d134acf4684aa96a1ee2143f2a2",
      "courseGroupGUID":"CE0E43FC0BDD40E0A3E47328327E3FCB",
      "courseType": "On Demand",
      "rating": "0.0",
      "reviewCount": "0",
      "attributeLabel": "Popular",
      "attributeType": "popular",
      "subscriptionId": [
        1300
      ]
    },
    {
      "courseTitle": "test",
      "thumbnail": "https://qa-player.360training.com/ICPfilesystem/PersistentAssets/129380/116342/software-testing-words-stamp.jpg",
      "fullImage": "https://qa-player.360training.com/ICPfilesystem/PersistentAssets/129380/116342/software-testing-words-stamp.jpg",
      "category": "Canada Health & Safety Training",
      "format": "On Demand",
      "level": "",
      "duration": "0*",
      "durationUnit": "hour",
      "shortDesc": "",
      "launchURI": "",
      "courseGUID": "b777b3a88f4848fa85971b5e4bd4a298",
      "courseGroupGUID":"CE0E43FC0BDD40E0A3E47328327E3FCB",
      "courseType": "On Demand",
      "rating": "0.0",
      "reviewCount": "0",
      "attributeLabel": "Xyz",
      "attributeType": "xyx",
      "subscriptionId": [
        1300
      ]
    },
    {
      "courseTitle": "test",
      "thumbnail": "https://qa-player.360training.com/ICPfilesystem/PersistentAssets/129380/116342/software-testing-words-stamp.jpg",
      "fullImage": "https://qa-player.360training.com/ICPfilesystem/PersistentAssets/129380/116342/software-testing-words-stamp.jpg",
      "category": "wb2@test.com",
      "format": "On Demand",
      "level": "",
      "duration": "0*",
      "durationUnit": "hour",
      "shortDesc": "",
      "launchURI": "",
      "courseGUID": "68a580a82ba8461fa4979cba1adcaaa7",
      "courseGroupGUID":"CE0E43FC0BDD40E0A3E47328327E3FCB",
      "courseType": "On Demand",
      "rating": "0.0",
      "reviewCount": "0",
      "attributeLabel": "",
      "attributeType": "",
      "subscriptionId": [
        1300
      ]
    },
    {
      "courseTitle": "test",
      "thumbnail": "https://qa-player.360training.com/ICPfilesystem/PersistentAssets/129380/116342/software-testing-words-stamp.jpg",
      "fullImage": "https://qa-player.360training.com/ICPfilesystem/PersistentAssets/129380/116342/software-testing-words-stamp.jpg",
      "category": "wb2@test.com",
      "format": "On Demand",
      "level": "",
      "duration": "10*",
      "durationUnit": "hour",
      "shortDesc": "",
      "launchURI": "",
      "courseGUID": "19baf0c3c85c4631a228236c30b5b52a",
      "courseGroupGUID":"CE0E43FC0BDD40E0A3E47328327E3FCB",
      "courseType": "On Demand",
      "rating": "0.0",
      "reviewCount": "0",
      "attributeLabel": "",
      "attributeType": "",
      "subscriptionId": [
        1300
      ]
    },
    {
      "courseTitle": "test",
      "thumbnail": "",
      "fullImage": "",
      "category": "wb2@test.com",
      "format": "On Demand",
      "level": "",
      "duration": "0*",
      "durationUnit": "hour",
      "shortDesc": "",
      "launchURI": "",
      "courseGUID": "7aebeb76db5346f1bb4bdf9fab06d3f3",
      "courseGroupGUID":"CE0E43FC0BDD40E0A3E47328327E3FCB",
      "courseType": "On Demand",
      "rating": "0.0",
      "reviewCount": "0",
      "attributeLabel": "",
      "attributeType": "",
      "subscriptionId": [
        1300
      ]
    },
    {
      "courseTitle": "test",
      "thumbnail": "",
      "fullImage": "",
      "category": "wb2@test.com",
      "format": "Virtual Classroom",
      "level": "",
      "duration": "0*",
      "durationUnit": "hour",
      "shortDesc": "",
      "launchURI": "",
      "courseGUID": "33db06c973ad4d5e8029c89574aaa57f",
      "courseGroupGUID":"CE0E43FC0BDD40E0A3E47328327E3FCB",
      "courseType": "Virtual Classroom",
      "rating": "0.0",
      "reviewCount": "0",
      "attributeLabel": "",
      "attributeType": "",
      "subscriptionId": [
        1300
      ]
    },
    {
      "courseTitle": "test 123",
      "thumbnail": "https://qa-player.360training.com/ICPfilesystem/PersistentAssets/129380/116342/software-testing-words-stamp.jpg",
      "fullImage": "https://qa-player.360training.com/ICPfilesystem/PersistentAssets/129380/116342/software-testing-words-stamp.jpg",
      "category": "wb2@test.com",
      "format": "On Demand",
      "level": "",
      "duration": "0*",
      "durationUnit": "hour",
      "shortDesc": "",
      "launchURI": "",
      "courseGUID": "66fc84a9d1d44216b5c6e9de08907ec3",
      "courseGroupGUID":"CE0E43FC0BDD40E0A3E47328327E3FCB",
      "courseType": "On Demand",
      "rating": "0.0",
      "reviewCount": "0",
      "attributeLabel": "",
      "attributeType": "",
      "subscriptionId": [
        1300
      ]
    }
  ]
}
